textfield,240,122,275,34
textfield,544,122,275,34
textfield,849,122,275,34
textfield,468,189,275,34
textfield,773,189,351,34
dropdown,0,163,0,0
checkbox,240,194,13,13
checkbox,240,456,13,13
textarea,240,334,884,87
button,1042,477,82,34
